…
## 1 Data

### 1.1 Importation

I import data in the same way than in the workshop 1.

``` r
library(tidyverse)
library(readxl)
(workshop2 <- read_xlsx("data.xlsx", sheet = "workshop2", skip = 3))
```

    ## # A tibble: 214 × 4
    ##    `TRADE DATE`        `NASDAQOMX/NQFRT/INDEX VALUE` NASDAQOMX/NQBRICT/INDEX V…¹
    ##    <dttm>                                      <dbl>                       <dbl>
    ##  1 2003-10-31 00:00:00                      0.0730                       0.0679 
    ##  2 2003-11-30 00:00:00                      0.0481                       0.0347 
    ##  3 2003-12-31 00:00:00                      0.0864                       0.137  
    ##  4 2004-01-31 00:00:00                     -0.000539                    -0.00188
    ##  5 2004-02-29 00:00:00                      0.0245                       0.0644 
    ##  6 2004-03-31 00:00:00                     -0.0375                       0.0294 
    ##  7 2004-04-30 00:00:00                     -0.0106                      -0.108  
    ##  8 2004-05-31 00:00:00                      0.0251                      -0.0581 
    ##  9 2004-06-30 00:00:00                      0.0313                       0.0179 
    ## 10 2004-07-31 00:00:00                     -0.0319                       0.0102 
    ## # ℹ 204 more rows
    ## # ℹ abbreviated name: ¹​`NASDAQOMX/NQBRICT/INDEX VALUE`
    ## # ℹ 1 more variable: `ML/TRI/BAMLCC0A0CMTRIV` <dbl>
…
