…
## 1 Data

### 1.1 Importation

I import the data with the package **readxl**, which manages Excel files
very well (comma, percentages) as well as missing values, with the
function `read_xlsx()`.

``` r
library(readxl)
(workshop1 <- read_xlsx("data.xlsx", sheet = "workshop1", skip = 4))
```

    ## # A tibble: 112 × 20
    ##    `TRADE DATE`        `NASDAQOMX/NQUSB0001/INDEX VALUE` NASDAQOMX/NQUSB1300/I…¹
    ##    <dttm>                                          <dbl>                   <dbl>
    ##  1 2011-06-30 00:00:00                          -0.0191                 -0.00444
    ##  2 2011-07-31 00:00:00                           0.00813                -0.0304 
    ##  3 2011-08-31 00:00:00                          -0.102                  -0.0805 
    ##  4 2011-09-30 00:00:00                          -0.123                  -0.163  
    ##  5 2011-10-31 00:00:00                           0.169                   0.176  
    ##  6 2011-11-30 00:00:00                           0.0181                 -0.00764
    ##  7 2011-12-31 00:00:00                          -0.00375                -0.00251
    ##  8 2012-01-31 00:00:00                           0.00943                 0.107  
    ##  9 2012-02-29 00:00:00                           0.0611                  0.0175 
    ## 10 2012-03-31 00:00:00                          -0.0289                  0.0230 
    ## # ℹ 102 more rows
    ## # ℹ abbreviated name: ¹​`NASDAQOMX/NQUSB1300/INDEX VALUE`
    ## # ℹ 17 more variables: `NASDAQOMX/NQUSB1700/INDEX VALUE` <dbl>,
    ## #   `NASDAQOMX/NQUSB2300/INDEX VALUE` <dbl>,
    ## #   `NASDAQOMX/NQUSB2700/INDEX VALUE` <dbl>,
    ## #   `NASDAQOMX/NQUSB3300/INDEX VALUE` <dbl>,
    ## #   `NASDAQOMX/NQUSB3500/INDEX VALUE` <dbl>, …
…
I can confirm this relation between the two steps with the choice of
monthly observations. Indeed, monthly returns are nearer to gaussian
data than weekly and daily data: they present less extreme variations
(see next section on data viz). As theoretical framework of H. Markowitz
behaves well with gaussian data, this choice is relevant.

To simplify our communication of results, I focus on the 4 first
variables.

``` r
(fin_return_4first_Supersectors <- fin_return %>% select(1:4))
```

    ## # A tibble: 112 × 4
    ##    NASDAQOMX/NQUSB0001/INDEX VAL…¹ NASDAQOMX/NQUSB1300/…² NASDAQOMX/NQUSB1700/…³
    ##                              <dbl>                  <dbl>                  <dbl>
    ##  1                        -0.0191                -0.00444               -0.0239 
    ##  2                         0.00813               -0.0304                -0.0135 
    ##  3                        -0.102                 -0.0805                -0.0875 
    ##  4                        -0.123                 -0.163                 -0.232  
    ##  5                         0.169                  0.176                  0.209  
    ##  6                         0.0181                -0.00764               -0.00442
    ##  7                        -0.00375               -0.00251               -0.0836 
    ##  8                         0.00943                0.107                  0.110  
    ##  9                         0.0611                 0.0175                -0.0340 
    ## 10                        -0.0289                 0.0230                -0.0569 
    ## # ℹ 102 more rows
    ## # ℹ abbreviated names: ¹​`NASDAQOMX/NQUSB0001/INDEX VALUE`,
    ## #   ²​`NASDAQOMX/NQUSB1300/INDEX VALUE`, ³​`NASDAQOMX/NQUSB1700/INDEX VALUE`
    ## # ℹ 1 more variable: `NASDAQOMX/NQUSB2300/INDEX VALUE` <dbl>
…
